[
	{
		"name": "horizon-line",
		"desc": "가로로 한줄",
		"onlyEven": false,
		"line": 1,
		"angle": 0
	},
	{
		"name": "vertical-line",
		"desc": "세로로 한줄",
		"onlyEven": false,
		"line": "n",
		"angle": 0
	},
	{
		"name": "90deg-horizon-line",
		"desc": "90도 회전후 가로로 한줄",
		"onlyEven": false,
		"line": 1,
		"angle": 90,
		"px": "left", 
		"py": "top" 
	}
]

